module github.com/cosmosregistry/chain-minimal

go 1.21

toolchain go1.21.0

replace (
	github.com/alice/checkers => ../checkers-minimal/
	// Fix upstream GHSA-h395-qcrw-5vmq vulnerability.
	// TODO Remove it: https://github.com/cosmos/cosmos-sdk/issues/10409
	github.com/gin-gonic/gin => github.com/gin-gonic/gin v1.7.0
	// Downgraded to avoid bugs in following commits which caused simulations to fail.
	github.com/syndtr/goleveldb => github.com/syndtr/goleveldb v1.0.1-0.20210819022825-2ae1ddf74ef7
)

require (
	cosmossdk.io/api v0.7.5
	cosmossdk.io/client/v2 v2.0.0-beta.1
	cosmossdk.io/core v0.11.0
	cosmossdk.io/depinject v1.0.0-alpha.4
	cosmossdk.io/errors v1.0.1
	cosmossdk.io/log v1.3.1
	cosmossdk.io/math v1.3.0
	cosmossdk.io/store v1.1.0
	cosmossdk.io/tools/confix v0.1.0
	github.com/alice/checkers v0.0.0-00010101000000-000000000000
	github.com/cometbft/cometbft v0.38.6
	github.com/cosmos/cosmos-db v1.0.2
	github.com/cosmos/cosmos-sdk v0.50.6
	github.com/spf13/cobra v1.8.0
	github.com/spf13/viper v1.18.2
)

require (
	cosmossdk.io/collections v0.4.0 // indirect
	cosmossdk.io/x/tx v0.13.2 // indirect
	filippo.io/edwards25519 v1.0.0 // indirect
	github.com/99designs/go-keychain v0.0.0-20191008050251-8e49817e8af4 // indirect
	github.com/99designs/keyring v1.2.1 // indirect
	github.com/DataDog/datadog-go v3.2.0+incompatible // indirect
	github.com/DataDog/zstd v1.5.5 // indirect
	github.com/beorn7/perks v1.0.1 // indirect
	github.com/bgentry/speakeasy v0.1.1-0.20220910012023-760eaf8b6816 // indirect
	github.com/btcsuite/btcd/btcec/v2 v2.3.2 // indirect
	github.com/cenkalti/backoff/v4 v4.1.3 // indirect
	github.com/cespare/xxhash v1.1.0 // indirect
	github.com/cespare/xxhash/v2 v2.3.0 // indirect
	github.com/cockroachdb/apd/v2 v2.0.2 // indirect
	github.com/cockroachdb/errors v1.11.1 // indirect
	github.com/cockroachdb/logtags v0.0.0-20230118201751-21c54148d20b // indirect
	github.com/cockroachdb/pebble v1.1.0 // indirect
	github.com/cockroachdb/redact v1.1.5 // indirect
	github.com/cockroachdb/tokenbucket v0.0.0-20230807174530-cc333fc44b06 // indirect
	github.com/cometbft/cometbft-db v0.9.1 // indirect
	github.com/cosmos/btcutil v1.0.5 // indirect
	github.com/cosmos/cosmos-proto v1.0.0-beta.5 // indirect
	github.com/cosmos/go-bip39 v1.0.0 // indirect
	github.com/cosmos/gogogateway v1.2.0 // indirect
	github.com/cosmos/gogoproto v1.4.12 // indirect
	github.com/cosmos/iavl v1.1.2 // indirect
	github.com/cosmos/ics23/go v0.10.0 // indirect
	github.com/cosmos/ledger-cosmos-go v0.13.3 // indirect
	github.com/creachadair/atomicfile v0.3.1 // indirect
	github.com/creachadair/tomledit v0.0.24 // indirect
	github.com/danieljoos/wincred v1.1.2 // indirect
	github.com/davecgh/go-spew v1.1.2-0.20180830191138-d8f796af33cc // indirect
	github.com/decred/dcrd/dcrec/secp256k1/v4 v4.2.0 // indirect
	github.com/desertbit/timer v0.0.0-20180107155436-c41aec40b27f // indirect
	github.com/dgraph-io/badger/v2 v2.2007.4 // indirect
	github.com/dgraph-io/ristretto v0.1.1 // indirect
	github.com/dgryski/go-farm v0.0.0-20200201041132-a6ae2369ad13 // indirect
	github.com/dustin/go-humanize v1.0.1 // indirect
	github.com/dvsekhvalnov/jose2go v1.6.0 // indirect
	github.com/emicklei/dot v1.6.1 // indirect
	github.com/fatih/color v1.15.0 // indirect
	github.com/felixge/httpsnoop v1.0.2 // indirect
	github.com/fsnotify/fsnotify v1.7.0 // indirect
	github.com/getsentry/sentry-go v0.27.0 // indirect
	github.com/go-kit/kit v0.12.0 // indirect
	github.com/go-kit/log v0.2.1 // indirect
	github.com/go-logfmt/logfmt v0.6.0 // indirect
	github.com/godbus/dbus v0.0.0-20190726142602-4481cbc300e2 // indirect
	github.com/gogo/googleapis v1.4.1 // indirect
	github.com/gogo/protobuf v1.3.2 // indirect
	github.com/golang/glog v1.2.0 // indirect
	github.com/golang/mock v1.6.0 // indirect
	github.com/golang/protobuf v1.5.4 // indirect
	github.com/golang/snappy v0.0.4 // indirect
	github.com/google/btree v1.1.2 // indirect
	github.com/google/go-cmp v0.6.0 // indirect
	github.com/google/orderedcode v0.0.1 // indirect
	github.com/gorilla/handlers v1.5.1 // indirect
	github.com/gorilla/mux v1.8.0 // indirect
	github.com/gorilla/websocket v1.5.0 // indirect
	github.com/grpc-ecosystem/go-grpc-middleware v1.4.0 // indirect
	github.com/grpc-ecosystem/grpc-gateway v1.16.0 // indirect
	github.com/gsterjov/go-libsecret v0.0.0-20161001094733-a6f4afe4910c // indirect
	github.com/hashicorp/go-hclog v1.5.0 // indirect
	github.com/hashicorp/go-immutable-radix v1.3.1 // indirect
	github.com/hashicorp/go-metrics v0.5.3 // indirect
	github.com/hashicorp/go-plugin v1.5.2 // indirect
	github.com/hashicorp/golang-lru v1.0.2 // indirect
	github.com/hashicorp/hcl v1.0.0 // indirect
	github.com/hashicorp/yamux v0.1.1 // indirect
	github.com/hdevalence/ed25519consensus v0.1.0 // indirect
	github.com/huandu/skiplist v1.2.0 // indirect
	github.com/iancoleman/strcase v0.3.0 // indirect
	github.com/improbable-eng/grpc-web v0.15.0 // indirect
	github.com/inconshreveable/mousetrap v1.1.0 // indirect
	github.com/jmhodges/levigo v1.0.0 // indirect
	github.com/klauspost/compress v1.17.7 // indirect
	github.com/kr/pretty v0.3.1 // indirect
	github.com/kr/text v0.2.0 // indirect
	github.com/lib/pq v1.10.7 // indirect
	github.com/libp2p/go-buffer-pool v0.1.0 // indirect
	github.com/linxGnu/grocksdb v1.8.14 // indirect
	github.com/magiconair/properties v1.8.7 // indirect
	github.com/mattn/go-colorable v0.1.13 // indirect
	github.com/mattn/go-isatty v0.0.20 // indirect
	github.com/minio/highwayhash v1.0.2 // indirect
	github.com/mitchellh/go-testing-interface v1.14.1 // indirect
	github.com/mitchellh/mapstructure v1.5.0 // indirect
	github.com/mtibben/percent v0.2.1 // indirect
	github.com/oasisprotocol/curve25519-voi v0.0.0-20230904125328-1f23a7beb09a // indirect
	github.com/oklog/run v1.1.0 // indirect
	github.com/pelletier/go-toml/v2 v2.1.0 // indirect
	github.com/petermattis/goid v0.0.0-20231207134359-e60b3f734c67 // indirect
	github.com/pkg/errors v0.9.1 // indirect
	github.com/pmezard/go-difflib v1.0.1-0.20181226105442-5d4384ee4fb2 // indirect
	github.com/prometheus/client_golang v1.19.0 // indirect
	github.com/prometheus/client_model v0.6.1 // indirect
	github.com/prometheus/common v0.52.2 // indirect
	github.com/prometheus/procfs v0.13.0 // indirect
	github.com/rcrowley/go-metrics v0.0.0-20201227073835-cf1acfcdf475 // indirect
	github.com/rogpeppe/go-internal v1.12.0 // indirect
	github.com/rs/cors v1.8.3 // indirect
	github.com/rs/zerolog v1.32.0 // indirect
	github.com/sagikazarmark/locafero v0.4.0 // indirect
	github.com/sagikazarmark/slog-shim v0.1.0 // indirect
	github.com/sasha-s/go-deadlock v0.3.1 // indirect
	github.com/sourcegraph/conc v0.3.0 // indirect
	github.com/spf13/afero v1.11.0 // indirect
	github.com/spf13/cast v1.6.0 // indirect
	github.com/spf13/pflag v1.0.5 // indirect
	github.com/stretchr/testify v1.9.0 // indirect
	github.com/subosito/gotenv v1.6.0 // indirect
	github.com/syndtr/goleveldb v1.0.1-0.20220721030215-126854af5e6d // indirect
	github.com/tendermint/go-amino v0.16.0 // indirect
	github.com/tidwall/btree v1.7.0 // indirect
	github.com/zondax/hid v0.9.2 // indirect
	github.com/zondax/ledger-go v0.14.3 // indirect
	go.etcd.io/bbolt v1.3.8 // indirect
	go.uber.org/multierr v1.10.0 // indirect
	golang.org/x/crypto v0.22.0 // indirect
	golang.org/x/exp v0.0.0-20240404231335-c0f41cb1a7a0 // indirect
	golang.org/x/net v0.24.0 // indirect
	golang.org/x/sync v0.7.0 // indirect
	golang.org/x/sys v0.19.0 // indirect
	golang.org/x/term v0.19.0 // indirect
	golang.org/x/text v0.14.0 // indirect
	google.golang.org/genproto v0.0.0-20240227224415-6ceb2ff114de // indirect
	google.golang.org/genproto/googleapis/api v0.0.0-20240227224415-6ceb2ff114de // indirect
	google.golang.org/genproto/googleapis/rpc v0.0.0-20240401170217-c3f982113cda // indirect
	google.golang.org/grpc v1.63.2 // indirect
	google.golang.org/protobuf v1.34.1 // indirect
	gopkg.in/ini.v1 v1.67.0 // indirect
	gopkg.in/yaml.v3 v3.0.1 // indirect
	gotest.tools/v3 v3.5.1 // indirect
	nhooyr.io/websocket v1.8.6 // indirect
	pgregory.net/rapid v1.1.0 // indirect
	sigs.k8s.io/yaml v1.4.0 // indirect
)
